testbench.vcd
$date
    Wed Dec  8 21:37:07 2021
$end
$version
    MyHDL 0.11
$end
$timescale
    1ns
$end

$scope module testbench $end
$var reg 1 ! reset $end
$var reg 40 " out_top $end
$var reg 32 # out_data $end
$var real 1 $ out_wvalid $end
$var real 1 % crc_ready $end
$var real 1 & valid_top $end
$var real 1 ' clk $end
$var reg 32 ( in_data $end
$var real 1 ) in_valid $end
$var real 1 * in_wready $end
$scope module top0 $end
$var real 1 ' clk $end
$var reg 1 ! reset $end
$var reg 32 ( in_data $end
$var real 1 ) in_rvalid $end
$var real 1 % in_wready $end
$var reg 40 " out_data $end
$var real 1 & out_wvalid $end
$var reg 32 + fifo_out $end
$var real 1 , fifo_valid $end
$var real 1 - fifo_ready $end
$scope module fifo_module0 $end
$var real 1 ' clk $end
$var reg 32 ( data_in $end
$var reg 32 + data_out $end
$var reg 4 . data_counter $end
$var real 1 / fifo_empty $end
$var real 1 0 fifo_full $end
$var reg 4 1 read_addr $end
$var reg 4 2 write_addr $end
$var real 1 - data_ready $end
$var real 1 , data_valid $end
$var reg 1 ! rst $end
$var real 1 ) valid_in $end
$scope module RAM0 $end
$var real 1 ' clk $end
$var reg 1 ! rst $end
$var reg 32 ( data_in $end
$var reg 32 + data_out $end
$var reg 4 1 read_addr $end
$var reg 4 2 write_addr $end
$var real 1 ) write_en $end
$scope module mem $end
$var reg 32 3 mem(0) $end
$var reg 32 4 mem(1) $end
$var reg 32 5 mem(2) $end
$var reg 32 6 mem(3) $end
$var reg 32 7 mem(4) $end
$var reg 32 8 mem(5) $end
$var reg 32 9 mem(6) $end
$var reg 32 : mem(7) $end
$var reg 32 ; mem(8) $end
$var reg 32 < mem(9) $end
$upscope $end
$upscope $end
$upscope $end
$scope module crc0 $end
$var real 1 ' clk $end
$var string 1 = fsm_state $end
$var reg 32 + in_rdata $end
$var real 1 , in_rvalid $end
$var real 1 % in_wready $end
$var real 1 - out_rready $end
$var reg 40 " out_wdata $end
$var real 1 & out_wvalid $end
$var reg 1 ! reset $end
$upscope $end
$upscope $end
$scope module crc_check0 $end
$var real 1 ' clk $end
$var string 1 > fsm_state $end
$var reg 40 " in_rdata $end
$var real 1 & in_rvalid $end
$var real 1 * in_wready $end
$var real 1 % out_rready $end
$var reg 32 # out_wdata $end
$var real 1 $ out_wvalid $end
$var reg 1 ! reset $end
$upscope $end
$upscope $end

$enddefinitions $end
$dumpvars
0!
b0000000000000000000000000000000000000000 "
b00000000000000000000000000000000 #
s0 $
s0 %
s0 &
s0 '
b00000000000000000000001111101000 (
s0 )
s1 *
b00000000000000000000000000000000 +
s0 ,
s0 -
b0000 .
s0x1 /
s0x0 0
b0000 1
b0000 2
b00000000000000000000000000000000 3
b00000000000000000000000000000000 4
b00000000000000000000000000000000 5
b00000000000000000000000000000000 6
b00000000000000000000000000000000 7
b00000000000000000000000000000000 8
b00000000000000000000000000000000 9
b00000000000000000000000000000000 :
b00000000000000000000000000000000 ;
b00000000000000000000000000000000 <
sREADY_TO_READ =
sREADY_TO_READ >
$end
#10
sTrue '
s1 ,
s1 -
s1 %
#20
sFalse '
#30
sTrue '
s0 -
s1 &
sREADY_TO_SEND =
#40
sFalse '
#50
sTrue '
s1 -
s0 &
sREADY_TO_READ =
b00000000000000000000011111010000 (
s1 )
s0 %
s1 $
sREADY_TO_SEND >
#60
sFalse '
#70
sTrue '
s1 %
sREADY_TO_READ >
s0 $
s0 )
s0 -
s1 &
sREADY_TO_SEND =
b00000000000000000000011111010000 3
b0001 2
s0x0 /
b00000000000000000000011111010000 +
#80
sFalse '
#90
sTrue '
s1 -
s0 &
b0000000000000000000001111101000000000000 "
sREADY_TO_READ =
b00000000000000000000101110111000 (
s1 )
s0 %
s1 $
sREADY_TO_SEND >
#100
sFalse '
#110
sTrue '
s1 %
sREADY_TO_READ >
b00000000000000000000011111010000 #
s0 $
s0 )
b0000000000000000000000000000000000000000 "
s0 -
s1 &
sREADY_TO_SEND =
b00000000000000000000101110111000 4
b0010 2
b0001 1
b00000000000000000000101110111000 +
#120
sFalse '
#130
sTrue '
s1 -
s0 &
b0000000000000000000010111011100000000001 "
sREADY_TO_READ =
b00000000000000000000111110100000 (
s1 )
b00000000000000000000000000000000 #
s0 %
s1 $
sREADY_TO_SEND >
#140
sFalse '
#150
sTrue '
s1 %
sREADY_TO_READ >
b00000000000000000000101110111000 #
s0 $
s0 )
b0000000000000000000000000000000000000000 "
s0 -
s1 &
sREADY_TO_SEND =
b00000000000000000000111110100000 5
b0011 2
b0010 1
b00000000000000000000111110100000 +
#160
sFalse '
#170
sTrue '
s1 -
s0 &
b0000000000000000000011111010000000001010 "
sREADY_TO_READ =
b00000000000000000001001110001000 (
s1 )
b00000000000000000000000000000000 #
s0 %
s1 $
sREADY_TO_SEND >
#180
sFalse '
#190
sTrue '
s1 %
sREADY_TO_READ >
b00000000000000000000111110100000 #
s0 $
s0 )
b0000000000000000000000000000000000000000 "
s0 -
s1 &
sREADY_TO_SEND =
b00000000000000000001001110001000 6
b0100 2
b0011 1
b00000000000000000001001110001000 +
#200
sFalse '
#210
sTrue '
s1 -
s0 &
b0000000000000000000100111000100000000010 "
sREADY_TO_READ =
b00000000000000000001011101110000 (
s1 )
b00000000000000000000000000000000 #
s0 %
s1 $
sREADY_TO_SEND >
#220
sFalse '
#230
sTrue '
s1 %
sREADY_TO_READ >
b00000000000000000001001110001000 #
s0 $
s0 )
b0000000000000000000000000000000000000000 "
s0 -
s1 &
sREADY_TO_SEND =
b00000000000000000001011101110000 7
b0101 2
b0100 1
b00000000000000000001011101110000 +
#240
sFalse '
#250
sTrue '
s1 -
s0 &
b0000000000000000000101110111000000101110 "
sREADY_TO_READ =
b00000000000000000001101101011000 (
s1 )
b00000000000000000000000000000000 #
s0 %
s1 $
sREADY_TO_SEND >
#260
sFalse '
#270
sTrue '
s1 %
sREADY_TO_READ >
b00000000000000000001011101110000 #
s0 $
s0 )
b0000000000000000000000000000000000000000 "
s0 -
s1 &
sREADY_TO_SEND =
b00000000000000000001101101011000 8
b0110 2
b0101 1
b00000000000000000001101101011000 +
#280
sFalse '
#290
sTrue '
s1 -
s0 &
b0000000000000000000110110101100000010100 "
sREADY_TO_READ =
b00000000000000000001111101000000 (
s1 )
b00000000000000000000000000000000 #
s0 %
s1 $
sREADY_TO_SEND >
#300
sFalse '
#310
sTrue '
s1 %
sREADY_TO_READ >
b00000000000000000001101101011000 #
s0 $
s0 )
b0000000000000000000000000000000000000000 "
s0 -
s1 &
sREADY_TO_SEND =
b00000000000000000001111101000000 9
b0111 2
b0110 1
b00000000000000000001111101000000 +
#320
sFalse '
#330
sTrue '
s1 -
s0 &
b0000000000000000000111110100000000001100 "
sREADY_TO_READ =
b00000000000000000010001100101000 (
s1 )
b00000000000000000000000000000000 #
s0 %
s1 $
sREADY_TO_SEND >
#340
sFalse '
#350
sTrue '
s1 %
sREADY_TO_READ >
b00000000000000000001111101000000 #
s0 $
s0 )
b0000000000000000000000000000000000000000 "
s0 -
s1 &
sREADY_TO_SEND =
b00000000000000000010001100101000 :
b1000 2
b0111 1
b00000000000000000010001100101000 +
#360
sFalse '
#370
sTrue '
s1 -
s0 &
b0000000000000000001000110010100000000100 "
sREADY_TO_READ =
b00000000000000000010011100010000 (
s1 )
b00000000000000000000000000000000 #
s0 %
s1 $
sREADY_TO_SEND >
#380
sFalse '
#390
sTrue '
s1 %
sREADY_TO_READ >
b00000000000000000010001100101000 #
s0 $
s0 )
b0000000000000000000000000000000000000000 "
s0 -
s1 &
sREADY_TO_SEND =
b00000000000000000010011100010000 ;
b1001 2
b1000 1
b00000000000000000010011100010000 +
#400
sFalse '
#410
sTrue '
s1 -
s0 &
b0000000000000000001001110001000001001110 "
sREADY_TO_READ =
b00000000000000000010101011111000 (
s1 )
b00000000000000000000000000000000 #
s0 %
s1 $
sREADY_TO_SEND >
#420
sFalse '
#430
sTrue '
s1 %
sREADY_TO_READ >
b00000000000000000010011100010000 #
s0 $
s0 )
b0000000000000000000000000000000000000000 "
s0 -
s1 &
sREADY_TO_SEND =
b00000000000000000010101011111000 <
b1010 2
b1001 1
b00000000000000000010101011111000 +
#440
sFalse '
#450
sTrue '
s1 -
s0 &
b0000000000000000001010101111100001000001 "
sREADY_TO_READ =
b00000000000000000010111011100000 (
s1 )
b00000000000000000000000000000000 #
s0 %
s1 $
sREADY_TO_SEND >
#460
sFalse '
#470
sTrue '
s1 %
sREADY_TO_READ >
b00000000000000000010101011111000 #
s0 $
s0 )
b0000000000000000000000000000000000000000 "
s0 -
s1 &
sREADY_TO_SEND =
b0000 2
b1010 1
#480
sFalse '
#490
sTrue '
s1 -
s0 &
b0000000000000000001010101111100000100000 "
sREADY_TO_READ =
b00000000000000000011001011001000 (
s1 )
b00000000000000000000000000000000 #
s0 %
s1 $
sREADY_TO_SEND >
#500
sFalse '
#510
sTrue '
s1 %
sREADY_TO_READ >
b00000000000000000010101011111000 #
s0 $
s0 )
b0000000000000000000000000000000000000000 "
s0 -
s1 &
sREADY_TO_SEND =
b00000000000000000011001011001000 3
b0001 2
#520
sFalse '
#530
sTrue '
s1 -
s0 &
b0000000000000000001010101111100000100000 "
sREADY_TO_READ =
b00000000000000000011011010110000 (
s1 )
b00000000000000000000000000000000 #
s0 %
s1 $
sREADY_TO_SEND >
#540
sFalse '
#550
sTrue '
s1 %
sREADY_TO_READ >
b00000000000000000010101011111000 #
s0 $
s0 )
b0000000000000000000000000000000000000000 "
s0 -
s1 &
sREADY_TO_SEND =
b00000000000000000011011010110000 4
b0010 2
b0000 1
b00000000000000000011001011001000 +
#560
sFalse '
#570
sTrue '
s1 -
s0 &
b0000000000000000001100101100100000100000 "
sREADY_TO_READ =
b00000000000000000011101010011000 (
s1 )
b00000000000000000000000000000000 #
s0 %
s1 $
sREADY_TO_SEND >
#580
sFalse '
#590
sTrue '
s1 %
sREADY_TO_READ >
b00000000000000000011001011001000 #
s0 $
s0 )
b0000000000000000000000000000000000000000 "
s0 -
s1 &
sREADY_TO_SEND =
b00000000000000000011101010011000 5
b0011 2
b0001 1
b00000000000000000011011010110000 +
#600
sFalse '
#610
sTrue '
s1 -
s0 &
b0000000000000000001101101011000000000100 "
sREADY_TO_READ =
b00000000000000000011111010000000 (
s1 )
b00000000000000000000000000000000 #
s0 %
s1 $
sREADY_TO_SEND >
#620
sFalse '
#630
sTrue '
s1 %
sREADY_TO_READ >
b00000000000000000011011010110000 #
s0 $
s0 )
b0000000000000000000000000000000000000000 "
s0 -
s1 &
sREADY_TO_SEND =
b00000000000000000011111010000000 6
b0100 2
b0010 1
b00000000000000000011101010011000 +
#640
sFalse '
#650
sTrue '
s1 -
s0 &
b0000000000000000001110101001100000011000 "
sREADY_TO_READ =
b00000000000000000100001001101000 (
s1 )
b00000000000000000000000000000000 #
s0 %
s1 $
sREADY_TO_SEND >
#660
sFalse '
#670
sTrue '
s1 %
sREADY_TO_READ >
b00000000000000000011101010011000 #
s0 $
s0 )
b0000000000000000000000000000000000000000 "
s0 -
s1 &
sREADY_TO_SEND =
b00000000000000000100001001101000 7
b0101 2
b0011 1
b00000000000000000011111010000000 +
#680
sFalse '
#690
sTrue '
s1 -
s0 &
b0000000000000000001111101000000000000000 "
sREADY_TO_READ =
b00000000000000000100011001010000 (
s1 )
b00000000000000000000000000000000 #
s0 %
s1 $
sREADY_TO_SEND >
#700
sFalse '
#710
sTrue '
s1 %
sREADY_TO_READ >
b00000000000000000011111010000000 #
s0 $
s0 )
b0000000000000000000000000000000000000000 "
s0 -
s1 &
sREADY_TO_SEND =
b00000000000000000100011001010000 8
b0110 2
b0100 1
b00000000000000000100001001101000 +
#720
sFalse '
#730
sTrue '
s1 -
s0 &
b0000000000000000010000100110100000001000 "
sREADY_TO_READ =
b00000000000000000100101000111000 (
s1 )
b00000000000000000000000000000000 #
s0 %
s1 $
sREADY_TO_SEND >
#740
sFalse '
#750
sTrue '
s1 %
sREADY_TO_READ >
b00000000000000000100001001101000 #
s0 $
s0 )
b0000000000000000000000000000000000000000 "
s0 -
s1 &
sREADY_TO_SEND =
b00000000000000000100101000111000 9
b0111 2
b0101 1
b00000000000000000100011001010000 +
#760
sFalse '
#770
sTrue '
s1 -
s0 &
b0000000000000000010001100101000000001110 "
sREADY_TO_READ =
b00000000000000000100111000100000 (
s1 )
b00000000000000000000000000000000 #
s0 %
s1 $
sREADY_TO_SEND >
#780
sFalse '
#790
sTrue '
s1 %
sREADY_TO_READ >
b00000000000000000100011001010000 #
s0 $
s0 )
b0000000000000000000000000000000000000000 "
s0 -
s1 &
sREADY_TO_SEND =
b00000000000000000100111000100000 :
b1000 2
b0110 1
b00000000000000000100101000111000 +
#800
sFalse '
#810
sTrue '
s1 -
s0 &
b0000000000000000010010100011100000000001 "
sREADY_TO_READ =
b00000000000000000101001000001000 (
s1 )
b00000000000000000000000000000000 #
s0 %
s1 $
sREADY_TO_SEND >
#820
sFalse '
#830
sTrue '
s1 %
sREADY_TO_READ >
b00000000000000000100101000111000 #
s0 $
s0 )
b0000000000000000000000000000000000000000 "
s0 -
s1 &
sREADY_TO_SEND =
b00000000000000000101001000001000 ;
b1001 2
b0111 1
b00000000000000000100111000100000 +
#840
sFalse '
#850
sTrue '
s1 -
s0 &
b0000000000000000010011100010000000001010 "
sREADY_TO_READ =
b00000000000000000101010111110000 (
s1 )
b00000000000000000000000000000000 #
s0 %
s1 $
sREADY_TO_SEND >
#860
sFalse '
#870
sTrue '
s1 %
sREADY_TO_READ >
b00000000000000000100111000100000 #
s0 $
s0 )
b0000000000000000000000000000000000000000 "
s0 -
s1 &
sREADY_TO_SEND =
b00000000000000000101010111110000 <
b1010 2
b1000 1
b00000000000000000101001000001000 +
#880
sFalse '
#890
sTrue '
s1 -
s0 &
b0000000000000000010100100000100000000010 "
sREADY_TO_READ =
b00000000000000000101100111011000 (
s1 )
b00000000000000000000000000000000 #
s0 %
s1 $
sREADY_TO_SEND >
#900
sFalse '
#910
sTrue '
s1 %
sREADY_TO_READ >
b00000000000000000101001000001000 #
s0 $
s0 )
b0000000000000000000000000000000000000000 "
s0 -
s1 &
sREADY_TO_SEND =
b0000 2
b1001 1
b00000000000000000101010111110000 +
#920
sFalse '
#930
sTrue '
s1 -
s0 &
b0000000000000000010101011111000000101110 "
sREADY_TO_READ =
b00000000000000000101110111000000 (
s1 )
b00000000000000000000000000000000 #
s0 %
s1 $
sREADY_TO_SEND >
#940
sFalse '
#950
sTrue '
s1 %
sREADY_TO_READ >
b00000000000000000101010111110000 #
s0 $
s0 )
b0000000000000000000000000000000000000000 "
s0 -
s1 &
sREADY_TO_SEND =
b00000000000000000101110111000000 3
b0001 2
b1010 1
#960
sFalse '
#970
sTrue '
s1 -
s0 &
b0000000000000000010101011111000001000000 "
sREADY_TO_READ =
b00000000000000000110000110101000 (
s1 )
b00000000000000000000000000000000 #
s0 %
s1 $
sREADY_TO_SEND >
#980
sFalse '
#990
sTrue '
s1 %
sREADY_TO_READ >
b00000000000000000101010111110000 #
s0 $
s0 )
b0000000000000000000000000000000000000000 "
s0 -
s1 &
sREADY_TO_SEND =
b00000000000000000110000110101000 4
b0010 2
b0000 1
b00000000000000000101110111000000 +
#1000
sFalse '
